<svg xmlns="http://www.w3.org/2000/svg" xmlns:xlink="http://www.w3.org/1999/xlink" width="1673.347" height="637.69" viewBox="0 0 1673.347 637.69">
  <defs>
    <clipPath id="clip-path">
      <rect id="Rectángulo_1" data-name="Rectángulo 1" width="1673.347" height="637.69" fill="none"/>
    </clipPath>
    <radialGradient id="radial-gradient" cx="0.5" cy="0.5" r="0.5" gradientUnits="objectBoundingBox">
      <stop offset="0.065" stop-color="#9cacd1"/>
      <stop offset="0.201" stop-color="#9cacd1" stop-opacity="0.812"/>
      <stop offset="0.467" stop-color="#9cacd1" stop-opacity="0.467"/>
      <stop offset="0.689" stop-color="#9cacd1" stop-opacity="0.216"/>
      <stop offset="0.854" stop-color="#9cacd1" stop-opacity="0.059"/>
      <stop offset="0.945" stop-color="#9cacd1" stop-opacity="0"/>
    </radialGradient>
    <radialGradient id="radial-gradient-4" cx="0.5" cy="0.5" r="0.5" gradientTransform="translate(0)" xlink:href="#radial-gradient"/>
    <radialGradient id="radial-gradient-5" cx="0.5" cy="0.5" r="0.5" gradientTransform="translate(0)" gradientUnits="objectBoundingBox">
      <stop offset="0.065" stop-color="#f2d458"/>
      <stop offset="0.139" stop-color="#f2d458" stop-opacity="0.886"/>
      <stop offset="0.36" stop-color="#f2d458" stop-opacity="0.576"/>
      <stop offset="0.557" stop-color="#f2d458" stop-opacity="0.329"/>
      <stop offset="0.724" stop-color="#f2d458" stop-opacity="0.149"/>
      <stop offset="0.854" stop-color="#f2d458" stop-opacity="0.039"/>
      <stop offset="0.93" stop-color="#f2d458" stop-opacity="0"/>
    </radialGradient>
    <radialGradient id="radial-gradient-6" cx="0.5" gradientTransform="matrix(1, 0, 0, 1, 0, 0)" xlink:href="#radial-gradient-5"/>
    <radialGradient id="radial-gradient-7" cx="0.5" cy="0.5" r="0.5" gradientTransform="translate(0)" gradientUnits="objectBoundingBox">
      <stop offset="0.065" stop-color="#71b3d9"/>
      <stop offset="0.071" stop-color="#71b3d9" stop-opacity="0.992"/>
      <stop offset="0.311" stop-color="#71b3d9" stop-opacity="0.643"/>
      <stop offset="0.525" stop-color="#71b3d9" stop-opacity="0.365"/>
      <stop offset="0.706" stop-color="#71b3d9" stop-opacity="0.169"/>
      <stop offset="0.847" stop-color="#71b3d9" stop-opacity="0.047"/>
      <stop offset="0.93" stop-color="#71b3d9" stop-opacity="0"/>
    </radialGradient>
    <radialGradient id="radial-gradient-8" cy="0.5" r="0.5" gradientTransform="matrix(1, 0, 0, 1, 0, 0)" xlink:href="#radial-gradient-7"/>
    <radialGradient id="radial-gradient-11" cx="0.5" cy="0.5" r="0.5" gradientUnits="objectBoundingBox">
      <stop offset="0.065" stop-color="#a9d6de"/>
      <stop offset="0.085" stop-color="#a9d6de" stop-opacity="0.969"/>
      <stop offset="0.316" stop-color="#a9d6de" stop-opacity="0.627"/>
      <stop offset="0.522" stop-color="#a9d6de" stop-opacity="0.357"/>
      <stop offset="0.695" stop-color="#a9d6de" stop-opacity="0.165"/>
      <stop offset="0.831" stop-color="#a9d6de" stop-opacity="0.043"/>
      <stop offset="0.91" stop-color="#a9d6de" stop-opacity="0"/>
    </radialGradient>
    <radialGradient id="radial-gradient-12" cx="0.5" cy="0.5" r="0.5" gradientTransform="translate(0)" gradientUnits="objectBoundingBox">
      <stop offset="0.065" stop-color="#7288bd"/>
      <stop offset="0.138" stop-color="#7288bd" stop-opacity="0.898"/>
      <stop offset="0.427" stop-color="#7288bd" stop-opacity="0.514"/>
      <stop offset="0.667" stop-color="#7288bd" stop-opacity="0.235"/>
      <stop offset="0.847" stop-color="#7288bd" stop-opacity="0.067"/>
      <stop offset="0.945" stop-color="#7288bd" stop-opacity="0"/>
    </radialGradient>
  </defs>
  <g id="Grupo_164" data-name="Grupo 164" transform="translate(553.235 -52.5)">
    <g id="Grupo_161" data-name="Grupo 161" transform="translate(-57.515 0.723)">
      <g id="Grupo_1" data-name="Grupo 1" transform="translate(-495.72 51.777)" clip-path="url(#clip-path)">
        <ellipse id="Elipse_1" data-name="Elipse 1" cx="222.638" cy="212.841" rx="222.638" ry="212.841" transform="translate(1106.385 305.516)" fill="url(#radial-gradient)"/>
        <ellipse id="Elipse_2" data-name="Elipse 2" cx="222.638" cy="212.841" rx="222.638" ry="212.841" transform="translate(383.323 220.891)" fill="url(#radial-gradient)"/>
        <ellipse id="Elipse_3" data-name="Elipse 3" cx="222.638" cy="212.841" rx="222.638" ry="212.841" transform="translate(974.194 -240.738)" fill="url(#radial-gradient)"/>
        <ellipse id="Elipse_4" data-name="Elipse 4" cx="222.638" cy="212.841" rx="222.638" ry="212.841" transform="translate(-222.638 428.421)" fill="url(#radial-gradient-4)"/>
        <ellipse id="Elipse_5" data-name="Elipse 5" cx="256.593" cy="245.302" rx="256.593" ry="245.302" transform="translate(835.298 82.372)" fill="url(#radial-gradient-5)"/>
        <ellipse id="Elipse_6" data-name="Elipse 6" cx="256.593" cy="245.302" rx="256.593" ry="245.302" transform="translate(562.839 -337.494)" fill="url(#radial-gradient-6)"/>
        <ellipse id="Elipse_7" data-name="Elipse 7" cx="337.827" cy="322.961" rx="337.827" ry="322.961" transform="translate(630.255 231.144)" fill="url(#radial-gradient-7)"/>
        <ellipse id="Elipse_8" data-name="Elipse 8" cx="337.827" cy="322.961" rx="337.827" ry="322.961" transform="translate(172.723 -310.655)" fill="url(#radial-gradient-8)"/>
        <ellipse id="Elipse_9" data-name="Elipse 9" cx="337.827" cy="322.961" rx="337.827" ry="322.961" transform="translate(1284.354 123.744)" fill="url(#radial-gradient-7)"/>
        <ellipse id="Elipse_10" data-name="Elipse 10" cx="337.827" cy="322.961" rx="337.827" ry="322.961" transform="translate(-262.061 -53.768)" fill="url(#radial-gradient-7)"/>
        <ellipse id="Elipse_11" data-name="Elipse 11" cx="256.593" cy="245.302" rx="256.593" ry="245.302" transform="translate(1090.637 7.503)" fill="url(#radial-gradient-11)"/>
        <ellipse id="Elipse_12" data-name="Elipse 12" cx="222.638" cy="212.841" rx="222.638" ry="212.841" transform="translate(489.646 321.407)" fill="url(#radial-gradient-12)"/>
        <ellipse id="Elipse_13" data-name="Elipse 13" cx="316.922" cy="302.976" rx="316.922" ry="302.976" transform="translate(10.629 49.941)" fill="url(#radial-gradient-6)"/>
      </g>
    </g>
  </g>
</svg>
