<svg xmlns="http://www.w3.org/2000/svg" width="117.8" height="117.8" viewBox="0 0 117.8 117.8">
  <g id="Grupo_172" data-name="Grupo 172" transform="translate(-37 -1787.614)">
    <g id="Grupo_104" data-name="Grupo 104" transform="translate(37 1787.614)">
      <g id="Grupo_60" data-name="Grupo 60" transform="translate(0)">
        <g id="Grupo_49" data-name="Grupo 49">
          <ellipse id="Elipse_18" data-name="Elipse 18" cx="58.9" cy="58.9" rx="58.9" ry="58.9" fill="#353e6f"/>
          <g id="Grupo_48" data-name="Grupo 48" transform="translate(23.753 34.26)">
            <path id="Trazado_1490" data-name="Trazado 1490" d="M493.26,1656.287c0,15.032-9.392,23.936-21.862,23.936s-23.3-8.9-23.3-23.936,9.374-25.2,21.845-25.2S493.26,1641.255,493.26,1656.287Z" transform="translate(-448.1 -1631.086)" fill="#9ccae4"/>
            <path id="Trazado_1491" data-name="Trazado 1491" d="M529.045,1656.287c0,15.032-9.392,23.936-21.863,23.936s-23.3-8.9-23.3-23.936,9.374-25.2,21.844-25.2S529.045,1641.255,529.045,1656.287Z" transform="translate(-458.751 -1631.086)" fill="#9ccae4"/>
            <path id="Trazado_1492" data-name="Trazado 1492" d="M503.913,1657.97c0-9.425-4.265-16.936-10.518-21.23-5.823,4.293-9.509,11.805-9.509,21.23s4.258,16.439,10.506,20.361C500.219,1674.409,503.913,1667.395,503.913,1657.97Z" transform="translate(-458.751 -1632.769)" fill="#7288bd"/>
            <path id="Trazado_1493" data-name="Trazado 1493" d="M471.021,1662.858a19.57,19.57,0,0,0-7.587-.247" transform="translate(-452.664 -1640.392)" fill="none" stroke="#7288bd" stroke-linecap="round" stroke-linejoin="round" stroke-width="3"/>
            <path id="Trazado_1494" data-name="Trazado 1494" d="M469.575,1681.095s8,3.1,16.007,0" transform="translate(-454.492 -1645.971)" fill="none" stroke="#7288bd" stroke-linecap="round" stroke-linejoin="round" stroke-width="3"/>
            <path id="Trazado_1495" data-name="Trazado 1495" d="M505.782,1681.934s7.75,2.624,15.31,0" transform="translate(-465.269 -1646.221)" fill="none" stroke="#7288bd" stroke-linecap="round" stroke-linejoin="round" stroke-width="3"/>
            <path id="Trazado_1496" data-name="Trazado 1496" d="M492.926,1663.4a11.7,11.7,0,0,1,7.328.208" transform="translate(-461.442 -1640.556)" fill="none" stroke="#a0d1df" stroke-linecap="round" stroke-linejoin="round" stroke-width="3"/>
            <path id="Trazado_1497" data-name="Trazado 1497" d="M532.793,1664.451a33.039,33.039,0,0,0-8.661.486" transform="translate(-470.731 -1640.985)" fill="none" stroke="#7288bd" stroke-linecap="round" stroke-linejoin="round" stroke-width="3"/>
          </g>
        </g>
      </g>
    </g>
  </g>
</svg>
