<svg xmlns="http://www.w3.org/2000/svg" width="117.8" height="117.8" viewBox="0 0 117.8 117.8">
  <g id="Grupo_173" data-name="Grupo 173" transform="translate(-189 -1790.935)">
    <g id="Grupo_100" data-name="Grupo 100" transform="translate(189 1790.935)">
      <g id="Grupo_61" data-name="Grupo 61">
        <ellipse id="Elipse_20" data-name="Elipse 20" cx="58.9" cy="58.9" rx="58.9" ry="58.9" fill="#353e6f"/>
        <g id="Grupo_53" data-name="Grupo 53" transform="translate(28.241 29.408)">
          <path id="Trazado_1502" data-name="Trazado 1502" d="M1197.542,1638.883c0,7.874-3.607,11.934-10.14,11.934s-13.518-4.06-13.518-11.934,3.184-13.2,9.717-13.2S1197.542,1631.009,1197.542,1638.883Z" transform="translate(-1148.176 -1624.626)" fill="#7288bd"/>
          <path id="Trazado_1503" data-name="Trazado 1503" d="M1182.845,1653.384s11.723,2.746,13.624,9.716,1.267,28.2,1.267,28.2h-42.772l-1.31-19.975c-8.027-4.647-19.707-10.336-15.475-16.793,4.408-6.728,19,2.656,19,2.656l12.748-6.559Z" transform="translate(-1137.281 -1632.051)" fill="#7288bd"/>
          <path id="Trazado_1504" data-name="Trazado 1504" d="M1175.738,1637.379c0,7.874-6.739,11.908-13.272,11.908s-10.386-4.033-10.386-11.908,7.408-13.2,13.941-13.2S1175.738,1629.505,1175.738,1637.379Z" transform="translate(-1141.686 -1624.178)" fill="#9ccae4"/>
          <path id="Trazado_1505" data-name="Trazado 1505" d="M1155.19,1676.778a36.815,36.815,0,0,0,13.033-2.309c3.813-1.511,4.144-6.465,6.772-5.357,2.007.846-1.7,6.519,1.677,5.252s5.175-5.6,8.132-3.908c.739.423.224,2.139-.422,3.591,3.842-.845,4.013,2.37,1.8,4.013,2.417,1.6,1.221,3.156-1.849,4.589-3.717,1.734-26.245,9.775-36.595,7.24s-2.323-18.8-2.323-18.8Z" transform="translate(-1138.818 -1637.505)" fill="#9ccae4"/>
          <path id="Trazado_1506" data-name="Trazado 1506" d="M1163.578,1643.976a7.616,7.616,0,0,0,5.658,0" transform="translate(-1145.108 -1630.071)" fill="none" stroke="#7288bd" stroke-linecap="round" stroke-linejoin="round" stroke-width="2"/>
          <path id="Trazado_1507" data-name="Trazado 1507" d="M1169.857,1653.613h3.99" transform="translate(-1146.978 -1632.939)" fill="none" stroke="#7288bd" stroke-linecap="round" stroke-linejoin="round" stroke-width="2"/>
          <path id="Trazado_1508" data-name="Trazado 1508" d="M1178.657,1643.976a7.617,7.617,0,0,0,5.658,0" transform="translate(-1149.596 -1630.071)" fill="none" stroke="#7288bd" stroke-linecap="round" stroke-linejoin="round" stroke-width="2"/>
        </g>
      </g>
    </g>
  </g>
</svg>
