<svg xmlns="http://www.w3.org/2000/svg" width="117.8" height="117.8" viewBox="0 0 117.8 117.8">
  <g id="Grupo_170" data-name="Grupo 170" transform="translate(-37 -1544.977)">
    <g id="Grupo_102" data-name="Grupo 102" transform="translate(37 1544.977)">
      <g id="Grupo_46" data-name="Grupo 46" transform="translate(0)">
        <g id="Grupo_43" data-name="Grupo 43">
          <ellipse id="Elipse_17" data-name="Elipse 17" cx="58.9" cy="58.9" rx="58.9" ry="58.9" fill="#353e6f"/>
          <g id="Grupo_42" data-name="Grupo 42" transform="translate(30.064 30.013)">
            <path id="Trazado_1482" data-name="Trazado 1482" d="M123.759,1687.531c-5.8,5.157-7.306,14,3.226,14.373s32.161,0,36.956,0c7.425,0,9.4-6.488,1.181-13.918-3.262-2.946-11.29-2.632-23.067-1.88S123.759,1687.531,123.759,1687.531Z" transform="translate(-116.744 -1643.063)" fill="#7288bd"/>
            <path id="Trazado_1483" data-name="Trazado 1483" d="M136.6,1641.308c-10.548-.107-15.3,6.287-19.011,13.857-7.194,14.669,7.9,21.456,15.093,24.4h20.876s23.556-5.5,14.81-22.851-14.952-15.161-21.158-15.409S136.6,1641.308,136.6,1641.308Z" transform="translate(-115.691 -1629.849)" fill="#7288bd"/>
            <path id="Trazado_1484" data-name="Trazado 1484" d="M161.8,1636.793c0,7.012-4.381,11.164-10.2,11.164s-10.867-4.152-10.867-11.164,4.372-11.754,10.189-11.754S161.8,1629.783,161.8,1636.793Z" transform="translate(-123.145 -1625.039)" fill="#9ccae4"/>
            <path id="Trazado_1485" data-name="Trazado 1485" d="M145.456,1644.667a6.784,6.784,0,0,0,5.015.476" transform="translate(-124.55 -1630.881)" fill="none" stroke="#7288bd" stroke-linecap="round" stroke-linejoin="round" stroke-width="2"/>
            <path id="Trazado_1486" data-name="Trazado 1486" d="M151.727,1652.379a7.173,7.173,0,0,0,7.052-.532" transform="translate(-126.417 -1633.018)" fill="none" stroke="#7288bd" stroke-linecap="round" stroke-linejoin="round" stroke-width="2"/>
            <path id="Trazado_1487" data-name="Trazado 1487" d="M158.856,1645.207a6.786,6.786,0,0,0,5.012-.511" transform="translate(-128.539 -1630.89)" fill="none" stroke="#7288bd" stroke-linecap="round" stroke-linejoin="round" stroke-width="2"/>
            <path id="Trazado_1488" data-name="Trazado 1488" d="M153.019,1665.506c.252,8.759.2,13.212-4.456,13.212-5.579,0-1.136-5.877.211-13.054C149.662,1660.936,152.905,1661.547,153.019,1665.506Z" transform="translate(-124.659 -1636.137)" fill="#9ccae4"/>
            <path id="Trazado_1489" data-name="Trazado 1489" d="M155.355,1665.506c-.252,8.759-.2,13.212,4.456,13.212,5.579,0,1.136-5.877-.211-13.054C158.713,1660.936,155.47,1661.547,155.355,1665.506Z" transform="translate(-127.473 -1636.137)" fill="#9ccae4"/>
          </g>
        </g>
      </g>
    </g>
  </g>
</svg>
