<svg xmlns="http://www.w3.org/2000/svg" width="166.982" height="27.817" viewBox="0 0 166.982 27.817">
  <g id="Grupo_162" data-name="Grupo 162" transform="translate(-18.137 -17.683)">
    <g id="Grupo_119" data-name="Grupo 119" transform="translate(18.137 17.683)">
      <path id="Trazado_22" data-name="Trazado 22" d="M73,60.874H68.1a9.827,9.827,0,0,0-1.975-2.22,5.738,5.738,0,0,0-1.9-.938,7.887,7.887,0,0,0-2.132-.284,6.506,6.506,0,0,0-3.051.733,7.7,7.7,0,0,0-2.435,1.995A9.678,9.678,0,0,0,55,63.093a10.646,10.646,0,0,0-.587,3.55,10.87,10.87,0,0,0,.577,3.569,9.495,9.495,0,0,0,1.594,2.924,7.648,7.648,0,0,0,2.425,1.985,6.59,6.59,0,0,0,3.09.733,6.188,6.188,0,0,0,2.19-.382,7.333,7.333,0,0,0,1.848-1.007,7.609,7.609,0,0,0,1.457-1.437,7.077,7.077,0,0,0,.978-1.692l5.087,1.13a11.282,11.282,0,0,1-1.606,3.2,11.157,11.157,0,0,1-2.55,2.55,12.31,12.31,0,0,1-3.353,1.694,12.677,12.677,0,0,1-4.015.618,12.125,12.125,0,0,1-3.476-.494,12.571,12.571,0,0,1-3.1-1.394,12.757,12.757,0,0,1-2.612-2.17,13.666,13.666,0,0,1-2-2.815A14.794,14.794,0,0,1,49.2,66.643,14.381,14.381,0,0,1,50.2,61.252a14.043,14.043,0,0,1,2.753-4.394,12.937,12.937,0,0,1,4.1-2.965,11.983,11.983,0,0,1,5.074-1.085,10.783,10.783,0,0,1,3.653.538,10.568,10.568,0,0,1,3.265,2.127H73Z" transform="translate(-49.197 -52.807)" fill="#fff"/>
      <path id="Trazado_23" data-name="Trazado 23" d="M118.008,80.434h7.515V92.121h1.917v4.2h-6.733V94.974a5.741,5.741,0,0,1-1.9,1.135,7.9,7.9,0,0,1-5-.015,5.583,5.583,0,0,1-2.032-1.25,5.863,5.863,0,0,1-1.365-2.094,8.017,8.017,0,0,1-.5-2.96V84.636h-2.071v-4.2h7.025V89.79a3.185,3.185,0,0,0,.813,2.385,2.908,2.908,0,0,0,2.116.79,2.709,2.709,0,0,0,1.672-.568,3.181,3.181,0,0,0,1.089-1.534V84.636h-2.546Z" transform="translate(-83.595 -69.012)" fill="#fff"/>
      <path id="Trazado_24" data-name="Trazado 24" d="M161.726,88.4l.046.475a3.16,3.16,0,0,0,.575,1.211,3.805,3.805,0,0,0,.958.874,4.264,4.264,0,0,0,1.227.529,5.385,5.385,0,0,0,1.365.177,9.751,9.751,0,0,0,1.311-.084,11.151,11.151,0,0,0,1.2-.23q.583-.146,1.135-.337t1.12-.406l1.687,3.144q-.874.537-1.6.912a10.328,10.328,0,0,1-1.465.621,8.754,8.754,0,0,1-1.564.36,14.266,14.266,0,0,1-1.933.115,9.353,9.353,0,0,1-3.681-.683,7.727,7.727,0,0,1-4.379-4.578,9.519,9.519,0,0,1-.575-3.313,8.851,8.851,0,0,1,.606-3.282,7.961,7.961,0,0,1,4.348-4.479,8.528,8.528,0,0,1,3.4-.659,8.366,8.366,0,0,1,3.321.621,6.964,6.964,0,0,1,2.446,1.718,7.669,7.669,0,0,1,1.534,2.577,10.063,10.063,0,0,1,.583,3.183q.046.383.054.759t-.023.775Zm3.666-5.8a4.554,4.554,0,0,0-1.465.207,3.02,3.02,0,0,0-1.02.568,2.881,2.881,0,0,0-.66.821,4.668,4.668,0,0,0-.383.966h6.641a5.005,5.005,0,0,0-.307-.982,2.609,2.609,0,0,0-.552-.813,2.508,2.508,0,0,0-.9-.56A3.847,3.847,0,0,0,165.392,82.6Z" transform="translate(-112.524 -68.033)" fill="#fff"/>
      <path id="Trazado_25" data-name="Trazado 25" d="M212.638,86.769a2.955,2.955,0,0,0-.706-2.093,2.432,2.432,0,0,0-1.871-.759,4.027,4.027,0,0,0-1.61.353,4.263,4.263,0,0,0-1.58,1.319v6.119h2.576v4.2h-9.877v-4.2H201.9V84.223h-2.3v-4.2h7.239v1.4a8.1,8.1,0,0,1,2.231-1.234,7.492,7.492,0,0,1,2.6-.453,5.86,5.86,0,0,1,4.417,1.6,6.483,6.483,0,0,1,1.549,4.686v5.69h2.254v4.2h-7.254Z" transform="translate(-137.403 -68.599)" fill="#fff"/>
      <path id="Trazado_26" data-name="Trazado 26" d="M255.549,71.817h3.175v4.018h-3.206l-.031,6.718a3.922,3.922,0,0,0,.092.943,1.463,1.463,0,0,0,.268.575.879.879,0,0,0,.422.291,1.915,1.915,0,0,0,.568.076,4.13,4.13,0,0,0,1.027-.115q.445-.115.89-.268l.659,2.96a7.2,7.2,0,0,1-1.74.782,7.879,7.879,0,0,1-2.278.291,5.009,5.009,0,0,1-1.787-.322,4.144,4.144,0,0,1-1.5-.974,4.744,4.744,0,0,1-1.027-1.633,6.07,6.07,0,0,1-.368-2.285l.046-7.04h-2.285V71.817h2.3l.031-3.8,4.77-2.27Z" transform="translate(-166.092 -60.395)" fill="#fff"/>
      <path id="Trazado_27" data-name="Trazado 27" d="M287.691,94.964q-.537.337-.981.575a5.588,5.588,0,0,1-.89.383,5.5,5.5,0,0,1-.92.215,7.308,7.308,0,0,1-1.043.069,7.773,7.773,0,0,1-2.554-.391,5.637,5.637,0,0,1-1.9-1.074,4.651,4.651,0,0,1-1.189-1.611,5.129,5.129,0,0,1,.008-4.056,4.45,4.45,0,0,1,1.219-1.6,5.8,5.8,0,0,1,1.955-1.043,8.561,8.561,0,0,1,2.645-.376,15.658,15.658,0,0,1,1.986.115q.9.115,1.664.284v-.491a2.193,2.193,0,0,0-.23-1.035,1.981,1.981,0,0,0-.644-.721,2.85,2.85,0,0,0-1-.414,5.837,5.837,0,0,0-1.273-.13,10.2,10.2,0,0,0-2.538.284,9.667,9.667,0,0,0-2.109.821l-1.473-2.975a13.021,13.021,0,0,1,3.275-1.641,11.433,11.433,0,0,1,3.627-.568,10.889,10.889,0,0,1,2.753.33,5.58,5.58,0,0,1,2.17,1.073,5.026,5.026,0,0,1,1.419,1.94,7.374,7.374,0,0,1,.514,2.914v5.782h2.132v4.2h-6.625Zm-3.5-2.378a5.323,5.323,0,0,0,1.979-.353,5.833,5.833,0,0,0,1.518-.859V89.351H284.01a2.263,2.263,0,0,0-.69.107,2.056,2.056,0,0,0-.606.307,1.528,1.528,0,0,0-.429.491,1.371,1.371,0,0,0-.161.675,1.543,1.543,0,0,0,.514,1.181A2.224,2.224,0,0,0,284.194,92.587Z" transform="translate(-183.29 -68.512)" fill="#fff"/>
      <path id="Trazado_28" data-name="Trazado 28" d="M316.3,79.977h7.27v1.38a8.058,8.058,0,0,1,2.209-1.242,7.149,7.149,0,0,1,2.53-.46,6.98,6.98,0,0,1,3.106.637,4.646,4.646,0,0,1,2.032,1.94,7.386,7.386,0,0,1,1.143-1.036,8.449,8.449,0,0,1,1.357-.813,7.689,7.689,0,0,1,1.511-.537,6.838,6.838,0,0,1,1.618-.192,5.96,5.96,0,0,1,4.479,1.61,6.5,6.5,0,0,1,1.564,4.709v5.69h2.254v4.2h-7.254v-9.11a3.03,3.03,0,0,0-.7-2.117,2.491,2.491,0,0,0-1.94-.767,3.38,3.38,0,0,0-1.618.406,4.87,4.87,0,0,0-1.511,1.4c.01.112.015.227.015.345v5.636h2.3v4.2H329.41V86.725a3.247,3.247,0,0,0-.2-1.165,2.624,2.624,0,0,0-.552-.89,2.522,2.522,0,0,0-.836-.575,2.874,2.874,0,0,0-1.066-.222,3.809,3.809,0,0,0-1.588.337,4.167,4.167,0,0,0-1.572,1.3v6.15h2.546v4.2h-9.877l-1.048-1.884,1.048-2.319h2.362V84.179H316.3Z" transform="translate(-205.24 -68.555)" fill="#fff"/>
      <path id="Trazado_29" data-name="Trazado 29" d="M398.573,88.4l.046.475a3.166,3.166,0,0,0,.575,1.211,3.813,3.813,0,0,0,.959.874,4.259,4.259,0,0,0,1.227.529,5.385,5.385,0,0,0,1.365.177,9.751,9.751,0,0,0,1.311-.084,11.149,11.149,0,0,0,1.2-.23q.583-.146,1.135-.337t1.119-.406l1.687,3.144q-.874.537-1.6.912a10.307,10.307,0,0,1-1.465.621,8.747,8.747,0,0,1-1.564.36,14.255,14.255,0,0,1-1.932.115,9.356,9.356,0,0,1-3.681-.683,7.725,7.725,0,0,1-4.379-4.578A9.521,9.521,0,0,1,394,87.185a8.852,8.852,0,0,1,.606-3.282,7.959,7.959,0,0,1,4.348-4.479,8.529,8.529,0,0,1,3.4-.659,8.367,8.367,0,0,1,3.321.621,6.964,6.964,0,0,1,2.446,1.718,7.676,7.676,0,0,1,1.534,2.577,10.065,10.065,0,0,1,.583,3.183q.046.383.054.759t-.023.775Zm3.665-5.8a4.554,4.554,0,0,0-1.465.207,3.028,3.028,0,0,0-1.02.568,2.887,2.887,0,0,0-.659.821,4.618,4.618,0,0,0-.383.966h6.641a4.977,4.977,0,0,0-.307-.982,2.6,2.6,0,0,0-.552-.813,2.507,2.507,0,0,0-.9-.56A3.848,3.848,0,0,0,402.238,82.6Z" transform="translate(-251.453 -68.033)" fill="#fff"/>
      <rect id="Rectángulo_3" data-name="Rectángulo 3" width="11.181" height="3.645" transform="translate(47.548 6.089) rotate(-15.919)" fill="#fff"/>
      <path id="Trazado_30" data-name="Trazado 30" d="M49.2,109.256l2.417-7.481,5.063,5.063Z" transform="translate(-49.197 -81.531)" fill="#fff"/>
      <path id="Trazado_31" data-name="Trazado 31" d="M438.706,108.615a2.975,2.975,0,0,1,2.991-2.991,2.827,2.827,0,0,1,1.143.238,3.064,3.064,0,0,1,.951.644,2.992,2.992,0,0,1,.629,3.275,3.012,3.012,0,0,1-.636.951,3.062,3.062,0,0,1-.936.636,2.8,2.8,0,0,1-1.151.238,2.934,2.934,0,0,1-1.189-.238,3.134,3.134,0,0,1-.951-.636,2.781,2.781,0,0,1-.629-.943A3.071,3.071,0,0,1,438.706,108.615Z" transform="translate(-277.675 -83.788)" fill="#fff"/>
    </g>
  </g>
</svg>
